[
    {
        "message": {
            "template": {
                "elements": {
                    "title": "Good Night!",
                    "says": "",
                    "visemes": ""
                },
                "type": "Card"
            }
        }
    },
    {
        "ssml":  "<speak><s>Good Night.</s></speak>"
    }
]